…
#remove empty elements
raw_split3 <- raw_split3[!is.na(raw_split3)]

Reading in our cleaned text file

Then we can finally read in our cleaned text as a tab-separated (.tsv) file. Here I make use of map() from the purrr package to apply read_tsv() to every string in our raw text vector. skip = 1 gets rid of that weird line of “in”s and “out”s.

input <- raw_split3 %>%
  map(read_tsv, skip = 1)
input[[1]]

## # A tibble: 304 x 40
##                                    Obs   HHMMSS FTime `EBal?` Photo   Cond
##                                  <chr>   <time> <dbl>   <int> <dbl>  <dbl>
##  1    08:30:38 Lamp: ParIn ->  500 uml       NA    NA      NA    NA     NA
##  2 08:32:37 CO2 Mixer: CO2R -> 400 uml       NA    NA      NA    NA     NA
##  3    08:40:20 Lamp: ParIn ->  500 uml       NA    NA      NA    NA     NA
##  4 08:40:20 CO2 Mixer: CO2R -> 400 uml       NA    NA      NA    NA     NA
##  5               08:40:20 Coolers: Off       NA    NA      NA    NA     NA
##  6  08:40:20 Flow: Fixed -> 500 umol/s       NA    NA      NA    NA     NA
##  7  08:42:11 Flow: Fixed -> 500 umol/s       NA    NA      NA    NA     NA
##  8                      08:43:13 c 4 a       NA    NA      NA    NA     NA
##  9                                   1 08:43:53   932       0  6.62 0.0589
## 10                                   2 08:43:58   937       0  6.99 0.0594
## # ... with 294 more rows, and 34 more variables: Ci <dbl>, Trmmol <dbl>,
## #   VpdL <dbl>, CTleaf <dbl>, Area <int>, BLC_1 <dbl>, StmRat <int>,
## #   BLCond <dbl>, Tair <dbl>, Tleaf <dbl>, TBlk <dbl>, CO2R <dbl>,
## #   CO2S <dbl>, H2OR <dbl>, H2OS <dbl>, RH_R <dbl>, RH_S <dbl>,
## #   Flow <dbl>, PARi <int>, PARo <int>, Press <dbl>, CsMch <dbl>,
## #   HsMch <dbl>, CsMchSD <dbl>, HsMchSD <dbl>, CrMchSD <dbl>,
## #   HrMchSD <dbl>, StableF <dbl>, BLCslope <dbl>, BLCoffst <dbl>,
## #   f_parin <dbl>, f_parout <dbl>, alphaK <dbl>, Status <int>
…
