…
For this blog post, I’m using a subset of the dataset with all frosting ingredients removed (because obviously cupcakes have frosting and muffins don’t). The reason I’m using a subset of only 30 recipes is to more accurately replicate the “curse of dimensionality” that is common in ecological data.

nofrosting.raw <-
  read_rds(here("data", "nofrosting_wide.rds"))
#can be found at github.com/Aariq/cupcakes-vs-muffins

set.seed(888)
nofrosting <-
  nofrosting.raw %>%
  sample_n(30) %>%  
  #puts factor names in title case for prettier plots
  mutate(type = fct_relabel(type, tools::toTitleCase))
nofrosting

## # A tibble: 30 x 42
##    type  recipe_id agave `baking powder` `baking soda`  bran  butter
##    <fct> <chr>     <dbl>           <dbl>         <dbl> <dbl>   <dbl>
##  1 Cupc… 145206        0        0.00174       0.000868     0 0      
##  2 Cupc… 240140        0        0.000868      0.000694     0 0.0167 
##  3 Cupc… 161019        0        0.000868      0.00174      0 0      
##  4 Muff… 16945         0        0             0            0 0.0741 
##  5 Muff… 228562        0        0.00116       0.00231      0 0.00694
##  6 Cupc… 215375        0        0.00130       0.000651     0 0      
##  7 Cupc… 242474        0        0.00208       0            0 0      
##  8 Cupc… 233538        0        0.00312       0.000521     0 0.05   
##  9 Cupc… 155534        0        0.00231       0.000579     0 0      
## 10 Muff… 6753          0        0.00694       0            0 0      
## # … with 20 more rows, and 35 more variables: buttermilk <dbl>,
## #   cheese <dbl>, chocolate <dbl>, cornmeal <dbl>, cream <dbl>, `cream
## #   cheese` <dbl>, eggs <dbl>, flour <dbl>, frosting <dbl>, fruit <dbl>,
## #   `fruit juice` <dbl>, honey <dbl>, `low-cal sweetener` <dbl>,
## #   margarine <dbl>, mayonnaise <dbl>, milk <dbl>, molasses <dbl>,
## #   nut <dbl>, oats <dbl>, oil <dbl>, other <dbl>, salt <dbl>,
## #   shortening <dbl>, `sour cream` <dbl>, spice <dbl>, starch <dbl>,
## #   sugar <dbl>, syrup <dbl>, unitless <dbl>, vanilla <dbl>,
## #   vegetable <dbl>, vinegar <dbl>, water <dbl>, `wheat germ` <dbl>,
…
